{
  "stats": {
    "suites": 1,
    "tests": 2,
    "passes": 1,
    "pending": 0,
    "failures": 1,
    "start": "2019-12-12T18:47:28.221Z",
    "end": "2019-12-12T18:47:43.546Z",
    "duration": 15325,
    "testsRegistered": 2,
    "passPercent": 50,
    "pendingPercent": 0,
    "other": 0,
    "hasOther": false,
    "skipped": 0,
    "hasSkipped": false
  },
  "results": [
    {
      "uuid": "432f2105-c417-4231-b481-7bd44b4caf02",
      "title": "",
      "fullFile": "",
      "file": "",
      "beforeHooks": [],
      "afterHooks": [],
      "tests": [],
      "suites": [
        {
          "uuid": "0cfc3a03-3bf5-4f20-8417-074c3c4edbc8",
          "title": "Test_1",
          "fullFile": "E:\\Automation work\\daliatestautomation\\DaliaTest\\src\\test\\answerTheSurvey.js",
          "file": "\\src\\test\\answerTheSurvey.js",
          "beforeHooks": [],
          "afterHooks": [],
          "tests": [
            {
              "title": "Verify Yuno welcome page",
              "fullTitle": "Test_1 Verify Yuno welcome page",
              "timedOut": false,
              "duration": 304,
              "state": "passed",
              "speed": "slow",
              "pass": true,
              "fail": false,
              "pending": false,
              "context": null,
              "code": "driver.get(url).then(async function () {\n   await driver.manage().window().maximize(1200, 800);\n  await  homePage.checkBoxSelection(driver);\n  await homePage.clickNext(driver);\n        });\n        this.timeout(15000);\n        setTimeout(done,300);",
              "err": {},
              "uuid": "b601fab1-d24e-412a-9815-c99a7cec5a85",
              "parentUUID": "0cfc3a03-3bf5-4f20-8417-074c3c4edbc8",
              "isHook": false,
              "skipped": false
            },
            {
              "title": "Verify Q n A functionality",
              "fullTitle": "Test_1 Verify Q n A functionality",
              "timedOut": true,
              "duration": 15007,
              "state": "failed",
              "speed": null,
              "pass": false,
              "fail": true,
              "pending": false,
              "context": null,
              "code": "await questionPages.radioButtonSelection(driver, questionPages.checkQn2, '1-3 hours');\n        await questionPages.checkBoxes(driver,questionPages.checkQn3);\n        await questionPages.checkBoxes(driver,questionPages.checkQn4);\n        await questionPages.enterTextToAnswer(driver,questionPages.checkQn5,\"Vinoth\");\n        await questionPages.radioButtonSelection(driver,questionPages.checkQn6,'Neither agree nor disagree');\n        await questionPages.enterTextToAnswer(driver,questionPages.checkQn7,\"7\");\n       await questionPages.radioButtonSelection(driver,questionPages.checkQn8,'City');\n       await questionPages.radioButtonSelection(driver,questionPages.checkQn9,'The Godfather');\n       await questionPages.radioButtonSelection(driver,questionPages.checkQn10,'Cinematography');\n       await questionPages.verifyEndMessage(driver,questionPages.checkDoneMessage);\n       // this.timeout(15000);\n       // setTimeout(done,300);",
              "err": {
                "message": "Error: Timeout of 15000ms exceeded. For async tests and hooks, ensure \"done()\" is called; if returning a Promise, ensure it resolves. (E:\\Automation work\\daliatestautomation\\DaliaTest\\src\\test\\answerTheSurvey.js)",
                "estack": "Error: Timeout of 15000ms exceeded. For async tests and hooks, ensure \"done()\" is called; if returning a Promise, ensure it resolves. (E:\\Automation work\\daliatestautomation\\DaliaTest\\src\\test\\answerTheSurvey.js)\n    at listOnTimeout (internal/timers.js:531:17)\n    at processTimers (internal/timers.js:475:7)",
                "diff": null
              },
              "uuid": "bc21ddc7-2533-4298-8c18-451294a773f6",
              "parentUUID": "0cfc3a03-3bf5-4f20-8417-074c3c4edbc8",
              "isHook": false,
              "skipped": false
            }
          ],
          "suites": [],
          "passes": [
            "b601fab1-d24e-412a-9815-c99a7cec5a85"
          ],
          "failures": [
            "bc21ddc7-2533-4298-8c18-451294a773f6"
          ],
          "pending": [],
          "skipped": [],
          "duration": 15311,
          "root": false,
          "rootEmpty": false,
          "_timeout": 15000
        }
      ],
      "passes": [],
      "failures": [],
      "pending": [],
      "skipped": [],
      "duration": 0,
      "root": true,
      "rootEmpty": true,
      "_timeout": 15000
    }
  ],
  "meta": {
    "mocha": {
      "version": "6.2.2"
    },
    "mochawesome": {
      "options": {
        "quiet": false,
        "reportFilename": "mochawesome",
        "saveHtml": true,
        "saveJson": true,
        "consoleReporter": "spec",
        "useInlineDiffs": false
      },
      "version": "4.1.0"
    },
    "marge": {
      "options": null,
      "version": "4.0.1"
    }
  }
}